zeros,total
499818,1000000
501034,1000000
499220,1000000
499503,1000000
500642,1000000
499967,1000000
500608,1000000
499973,1000000
500100,1000000
499630,1000000
499868,1000000
499741,1000000
500349,1000000
499625,1000000
499730,1000000
499337,1000000
500360,1000000
500005,1000000
499993,1000000
500341,1000000
501104,1000000
499474,1000000
500117,1000000
499932,1000000
500777,1000000
499691,1000000
500435,1000000
499182,1000000
500033,1000000
500278,1000000
498687,1000000
499920,1000000
501438,1000000
499685,1000000
499383,1000000
500408,1000000
499422,1000000
500063,1000000
500452,1000000
500021,1000000
499818,1000000
500441,1000000
499514,1000000
500435,1000000
500975,1000000
500580,1000000
499050,1000000
500018,1000000
500243,1000000
499814,1000000
499438,1000000
500202,1000000
499555,1000000
499897,1000000
499497,1000000
500680,1000000
500460,1000000
499833,1000000
499385,1000000
499363,1000000
500630,1000000
499638,1000000
499786,1000000
500317,1000000
499633,1000000
499745,1000000
499356,1000000
500933,1000000
499685,1000000
499312,1000000
499932,1000000
499245,1000000
499250,1000000
500441,1000000
500273,1000000
499835,1000000
500084,1000000
499745,1000000
500819,1000000
500255,1000000
499569,1000000
499373,1000000
499632,1000000
499872,1000000
499234,1000000
500925,1000000
500262,1000000
499910,1000000
499403,1000000
499458,1000000
500795,1000000
499522,1000000
499694,1000000
499552,1000000
500262,1000000
499882,1000000
499922,1000000
499558,1000000
499951,1000000
499552,1000000
499723,1000000
499515,1000000
500249,1000000
499988,1000000
499709,1000000
498123,1000000
500877,1000000
499620,1000000
499433,1000000
499433,1000000
500148,1000000
500632,1000000
499241,1000000
500751,1000000
500328,1000000
499375,1000000
499303,1000000
499831,1000000
498412,1000000
500700,1000000
499633,1000000
499756,1000000
500581,1000000
500332,1000000
500821,1000000
500677,1000000
500331,1000000
500293,1000000
499931,1000000
499990,1000000
499554,1000000
498979,1000000
499438,1000000
500603,1000000
500752,1000000
499171,1000000
499814,1000000
499890,1000000
501151,1000000
500330,1000000
499085,1000000
499851,1000000
499438,1000000
500123,1000000
500099,1000000
500549,1000000
500369,1000000
499689,1000000
500384,1000000
500426,1000000
500520,1000000
500447,1000000
500573,1000000
499953,1000000
500311,1000000
499866,1000000
499945,1000000
499422,1000000
500359,1000000
499650,1000000
499506,1000000
501127,1000000
500859,1000000
500182,1000000
499736,1000000
499514,1000000
500058,1000000
500055,1000000
499206,1000000
499541,1000000
499995,1000000
500037,1000000
500167,1000000
500029,1000000
499925,1000000
499454,1000000
499424,1000000
500133,1000000
499870,1000000
499200,1000000
500066,1000000
500000,1000000
499515,1000000
499200,1000000
499832,1000000
499204,1000000
499138,1000000
499874,1000000
499844,1000000
499910,1000000
500460,1000000
500362,1000000
499129,1000000
499774,1000000
499853,1000000
499489,1000000
499811,1000000
500152,1000000
500072,1000000
500490,1000000
500394,1000000
499573,1000000
499134,1000000
499092,1000000
500245,1000000
500027,1000000
499932,1000000
499643,1000000
499930,1000000
500619,1000000
499722,1000000
500097,1000000
500462,1000000
499657,1000000
500053,1000000
499789,1000000
499688,1000000
499938,1000000
500249,1000000
500929,1000000
500378,1000000
500545,1000000
499737,1000000
499376,1000000
499599,1000000
499890,1000000
499548,1000000
499227,1000000
500094,1000000
499860,1000000
500780,1000000
499785,1000000
500286,1000000
499638,1000000
500312,1000000
500377,1000000
500202,1000000
499530,1000000
500311,1000000
500555,1000000
500002,1000000
499975,1000000
500718,1000000
498626,1000000
500661,1000000
500040,1000000
499462,1000000
500974,1000000
500755,1000000
500697,1000000
499356,1000000
498685,1000000
500769,1000000
500104,1000000
499364,1000000
500376,1000000
499963,1000000
500307,1000000
499491,1000000
499650,1000000
499694,1000000
500355,1000000
500152,1000000
500822,1000000
499844,1000000
500345,1000000
500620,1000000
499777,1000000
499475,1000000
500316,1000000
499994,1000000
500320,1000000
499902,1000000
500426,1000000
499726,1000000
500334,1000000
499821,1000000
499950,1000000
499961,1000000
500310,1000000
499642,1000000
499741,1000000
500265,1000000
500534,1000000
500007,1000000
500473,1000000
500325,1000000
500265,1000000
499716,1000000
499774,1000000
500028,1000000
500126,1000000
500160,1000000
500357,1000000
498823,1000000
500158,1000000
500034,1000000
499013,1000000
500089,1000000
500116,1000000
500041,1000000
500476,1000000
500205,1000000
499616,1000000
500280,1000000
500284,1000000
500340,1000000
499909,1000000
500150,1000000
499519,1000000
500574,1000000
500069,1000000
499786,1000000
500287,1000000
499958,1000000
500502,1000000
499397,1000000
500334,1000000
499745,1000000
499896,1000000
499866,1000000
499894,1000000
499378,1000000
501085,1000000
500180,1000000
499716,1000000
500611,1000000
499350,1000000
499444,1000000
499747,1000000
499297,1000000
500170,1000000
500763,1000000
499106,1000000
498936,1000000
499785,1000000
499420,1000000
500702,1000000
499601,1000000
499438,1000000
500628,1000000
500126,1000000
500834,1000000
500821,1000000
500129,1000000
500126,1000000
500024,1000000
500223,1000000
500883,1000000
500369,1000000
499720,1000000
499278,1000000
499812,1000000
500032,1000000
500300,1000000
499652,1000000
500067,1000000
499763,1000000
499990,1000000
500010,1000000
500298,1000000
500813,1000000
499615,1000000
499434,1000000
500571,1000000
500424,1000000
499982,1000000
499832,1000000
500979,1000000
499498,1000000
500302,1000000
500119,1000000
499969,1000000
499805,1000000
499358,1000000
499667,1000000
500575,1000000
499015,1000000
499465,1000000
499794,1000000
500147,1000000
500593,1000000
500349,1000000
500045,1000000
500082,1000000
500325,1000000
500428,1000000
499437,1000000
499984,1000000
499968,1000000
500942,1000000
499365,1000000
499389,1000000
499479,1000000
500160,1000000
499721,1000000
499910,1000000
499284,1000000
500942,1000000
500004,1000000
500420,1000000
499544,1000000
499527,1000000
500283,1000000
500248,1000000
500643,1000000
500013,1000000
499753,1000000
499953,1000000
499797,1000000
499886,1000000
499879,1000000
500679,1000000
500432,1000000
499802,1000000
500856,1000000
499977,1000000
500456,1000000
500099,1000000
499737,1000000
500119,1000000
499935,1000000
500866,1000000
500778,1000000
500605,1000000
499847,1000000
500682,1000000
499491,1000000
499887,1000000
499227,1000000
500154,1000000
500283,1000000
499735,1000000
500453,1000000
499859,1000000
500636,1000000
499139,1000000
499961,1000000
500215,1000000
499190,1000000
499990,1000000
500126,1000000
500599,1000000
499362,1000000
500776,1000000
499554,1000000
500400,1000000
500560,1000000
500306,1000000
500177,1000000
500177,1000000
499928,1000000
499459,1000000
500222,1000000
499926,1000000
500460,1000000
500217,1000000
500336,1000000
499819,1000000
499637,1000000
500057,1000000
499655,1000000
500331,1000000
500154,1000000
500848,1000000
500865,1000000
500497,1000000
501089,1000000
500713,1000000
499396,1000000
500608,1000000
499120,1000000
500157,1000000
500145,1000000
500514,1000000
500324,1000000
499910,1000000
499978,1000000
500429,1000000
499503,1000000
499931,1000000
499944,1000000
500513,1000000
499541,1000000
499718,1000000
499402,1000000
499628,1000000
500392,1000000
499909,1000000
499504,1000000
499099,1000000
500276,1000000
500942,1000000
500030,1000000
500028,1000000
499218,1000000
500324,1000000
500613,1000000
499397,1000000
499788,1000000
499984,1000000
500205,1000000
499634,1000000
499842,1000000
499728,1000000
499814,1000000
499842,1000000
500496,1000000
500626,1000000
500698,1000000
499258,1000000
499309,1000000
499627,1000000
500084,1000000
499554,1000000
499372,1000000
500207,1000000
499157,1000000
499711,1000000
499689,1000000
499801,1000000
500235,1000000
499914,1000000
500146,1000000
500051,1000000
500832,1000000
499761,1000000
500475,1000000
500420,1000000
499561,1000000
499932,1000000
500553,1000000
500309,1000000
500302,1000000
500228,1000000
499921,1000000
499980,1000000
499527,1000000
500399,1000000
500039,1000000
500354,1000000
501081,1000000
500518,1000000
499471,1000000
500273,1000000
499708,1000000
499868,1000000
499799,1000000
500597,1000000
500631,1000000
500333,1000000
499338,1000000
499900,1000000
499512,1000000
500250,1000000
500108,1000000
499362,1000000
500050,1000000
501134,1000000
500480,1000000
499718,1000000
500899,1000000
501284,1000000
500365,1000000
499810,1000000
500783,1000000
499317,1000000
499534,1000000
500308,1000000
500156,1000000
500757,1000000
500788,1000000
499035,1000000
499446,1000000
500534,1000000
500175,1000000
499100,1000000
500384,1000000
499676,1000000
500364,1000000
500338,1000000
500192,1000000
500552,1000000
500227,1000000
500208,1000000
499989,1000000
500170,1000000
500156,1000000
500028,1000000
498938,1000000
499434,1000000
499267,1000000
500069,1000000
499844,1000000
500480,1000000
500682,1000000
499921,1000000
501049,1000000
499310,1000000
500125,1000000
500389,1000000
500509,1000000
499746,1000000
500116,1000000
499905,1000000
500010,1000000
499816,1000000
499929,1000000
499275,1000000
498972,1000000
500496,1000000
500752,1000000
500603,1000000
499410,1000000
499818,1000000
499844,1000000
501177,1000000
500357,1000000
499423,1000000
499788,1000000
499825,1000000
500346,1000000
499623,1000000
499113,1000000
499769,1000000
499689,1000000
500315,1000000
500190,1000000
499764,1000000
499736,1000000
500147,1000000
500286,1000000
500341,1000000
499717,1000000
498572,1000000
499819,1000000
500226,1000000
500234,1000000
500423,1000000
499968,1000000
501289,1000000
501219,1000000
500383,1000000
500175,1000000
499385,1000000
499359,1000000
499768,1000000
499439,1000000
500260,1000000
500276,1000000
500356,1000000
500955,1000000
499959,1000000
499867,1000000
500604,1000000
499374,1000000
499785,1000000
500390,1000000
499806,1000000
500229,1000000
500013,1000000
499236,1000000
499496,1000000
499731,1000000
499789,1000000
500318,1000000
500147,1000000
500511,1000000
500697,1000000
499981,1000000
500538,1000000
500363,1000000
500043,1000000
500095,1000000
499462,1000000
499733,1000000
499570,1000000
499862,1000000
499739,1000000
499959,1000000
500448,1000000
499989,1000000
500249,1000000
500096,1000000
499830,1000000
499685,1000000
499461,1000000
499959,1000000
500298,1000000
500639,1000000
500009,1000000
499929,1000000
501003,1000000
500126,1000000
500598,1000000
500030,1000000
500317,1000000
500120,1000000
500101,1000000
499151,1000000
500724,1000000
500423,1000000
498996,1000000
499450,1000000
499685,1000000
499881,1000000
500169,1000000
499413,1000000
499439,1000000
499074,1000000
500132,1000000
500473,1000000
500493,1000000
500393,1000000
500510,1000000
499921,1000000
499876,1000000
500503,1000000
500110,1000000
500106,1000000
499826,1000000
500162,1000000
499802,1000000
499910,1000000
500471,1000000
500824,1000000
499676,1000000
499979,1000000
500706,1000000
499844,1000000
500171,1000000
500454,1000000
499719,1000000
500001,1000000
499241,1000000
500284,1000000
499289,1000000
499762,1000000
499911,1000000
499980,1000000
500035,1000000
499940,1000000
499393,1000000
500431,1000000
499560,1000000
499909,1000000
499556,1000000
499901,1000000
500299,1000000
499476,1000000
499588,1000000
499646,1000000
500079,1000000
499906,1000000
499696,1000000
500162,1000000
500190,1000000
500251,1000000
499260,1000000
500515,1000000
500200,1000000
499701,1000000
500567,1000000
500255,1000000
499931,1000000
499993,1000000
500270,1000000
499595,1000000
499827,1000000
499594,1000000
500184,1000000
501033,1000000
500277,1000000
499353,1000000
500360,1000000
500901,1000000
500399,1000000
499959,1000000
500307,1000000
499454,1000000
499268,1000000
500437,1000000
500033,1000000
499855,1000000
500107,1000000
499537,1000000
500549,1000000
499677,1000000
500333,1000000
500449,1000000
499592,1000000
500096,1000000
499328,1000000
499326,1000000
500056,1000000
500567,1000000
499760,1000000
499288,1000000
500146,1000000
499708,1000000
500137,1000000
500647,1000000
500413,1000000
499238,1000000
499381,1000000
499055,1000000
500104,1000000
500099,1000000
499931,1000000
499325,1000000
499655,1000000
499753,1000000
499963,1000000
499656,1000000
500042,1000000
500117,1000000
499955,1000000
500007,1000000
499263,1000000
500460,1000000
500611,1000000
500263,1000000
499445,1000000
500577,1000000
501039,1000000
500889,1000000
499448,1000000
500221,1000000
499879,1000000
499821,1000000
499131,1000000
500034,1000000
499713,1000000
499973,1000000
500402,1000000
500243,1000000
500171,1000000
499400,1000000
500288,1000000
499739,1000000
499480,1000000
499507,1000000
500365,1000000
500323,1000000
499747,1000000
501430,1000000
500468,1000000
499994,1000000
498506,1000000
499673,1000000
499594,1000000
499750,1000000
500273,1000000
500300,1000000
500322,1000000
500151,1000000
500788,1000000
498946,1000000
499811,1000000
500239,1000000
500307,1000000
500590,1000000
500239,1000000
499776,1000000
500042,1000000
498214,1000000
499780,1000000
499646,1000000
499540,1000000
500013,1000000
500782,1000000
499920,1000000
500390,1000000
499536,1000000
499801,1000000
500375,1000000
499764,1000000
500120,1000000
499843,1000000
499938,1000000
500745,1000000
500590,1000000
500523,1000000
500562,1000000
500085,1000000
499830,1000000
499958,1000000
500327,1000000
500550,1000000
499252,1000000
499667,1000000
500151,1000000
499331,1000000
500466,1000000
499738,1000000
499418,1000000
500182,1000000
499788,1000000
500226,1000000
500202,1000000
500346,1000000
500545,1000000
498968,1000000
500264,1000000
500037,1000000
499388,1000000
499998,1000000
499915,1000000
500190,1000000
498563,1000000
500448,1000000
500518,1000000
500367,1000000
498538,1000000
500065,1000000
500188,1000000
499056,1000000
500400,1000000
499687,1000000
499748,1000000
499450,1000000
500019,1000000
500439,1000000
499332,1000000
500211,1000000
499713,1000000
500377,1000000
500831,1000000
499572,1000000
501099,1000000
499980,1000000
498792,1000000
499699,1000000
500330,1000000
500143,1000000
499090,1000000
500213,1000000
500036,1000000
500226,1000000
499925,1000000
500089,1000000
500333,1000000
499484,1000000
500271,1000000
500002,1000000
499843,1000000
500009,1000000
501995,1000000
499883,1000000
499165,1000000
500418,1000000
499867,1000000
499823,1000000
499799,1000000
500258,1000000
500804,1000000
500079,1000000
500262,1000000
499643,1000000
500204,1000000
499662,1000000
501087,1000000
500043,1000000
500206,1000000
500330,1000000
499860,1000000
500647,1000000
499394,1000000
499653,1000000
500328,1000000
500181,1000000
499809,1000000
499825,1000000
500321,1000000
498571,1000000
500442,1000000
499376,1000000
500180,1000000
499926,1000000
499499,1000000
500167,1000000
499808,1000000
500140,1000000
500238,1000000
500571,1000000
500759,1000000
500478,1000000
501067,1000000
499863,1000000
499318,1000000
500071,1000000
500000,1000000
499378,1000000
500216,1000000
499974,1000000
499192,1000000
499753,1000000
499411,1000000
500505,1000000
500414,1000000
500212,1000000
499043,1000000
500691,1000000
499539,1000000
500130,1000000
501185,1000000
500550,1000000
499329,1000000
499486,1000000
500009,1000000
499718,1000000
500978,1000000
500055,1000000
498967,1000000
500009,1000000
500183,1000000
500151,1000000
500066,1000000
500886,1000000
499982,1000000
499589,1000000
500371,1000000
500512,1000000
499551,1000000
499894,1000000
499488,1000000
499566,1000000
499675,1000000
500226,1000000
499740,1000000
500310,1000000
499172,1000000
500003,1000000
499838,1000000
499937,1000000
500110,1000000
499661,1000000
499775,1000000
500445,1000000
499174,1000000
498877,1000000
499487,1000000
499838,1000000
499155,1000000
500167,1000000
500722,1000000
500421,1000000
500088,1000000
499695,1000000
499850,1000000
500894,1000000
499115,1000000
500217,1000000
500157,1000000
501128,1000000
500179,1000000
499927,1000000
499790,1000000
500055,1000000
500273,1000000
499416,1000000
499343,1000000
499575,1000000
500281,1000000
498718,1000000
500014,1000000
498993,1000000
499865,1000000
499574,1000000
499436,1000000
499726,1000000
499825,1000000
499823,1000000
500525,1000000
500314,1000000
500813,1000000
499920,1000000
499874,1000000
500390,1000000
499560,1000000
499627,1000000
500126,1000000
500210,1000000
499782,1000000
500036,1000000
500781,1000000
500275,1000000
499229,1000000
501125,1000000
500629,1000000
500447,1000000
499443,1000000
499944,1000000
500828,1000000
499769,1000000
499771,1000000
500132,1000000
500582,1000000
499813,1000000
499955,1000000
500139,1000000
500228,1000000
500142,1000000
499917,1000000
499473,1000000
500037,1000000
501344,1000000
500388,1000000
499943,1000000
500761,1000000
499619,1000000
500114,1000000
499956,1000000
499872,1000000
499881,1000000
500219,1000000
500479,1000000
499149,1000000
500192,1000000
500444,1000000
500353,1000000
499997,1000000
500261,1000000
500147,1000000
500877,1000000
500046,1000000
500568,1000000
499258,1000000
500574,1000000
499828,1000000
500227,1000000
498832,1000000
500228,1000000
500020,1000000
499102,1000000
500228,1000000
500176,1000000
499840,1000000
499782,1000000
499537,1000000
499757,1000000
500452,1000000
500702,1000000
499763,1000000
499464,1000000
500020,1000000
499946,1000000
500062,1000000
499984,1000000
500608,1000000
499327,1000000
499902,1000000
500152,1000000
499377,1000000
499663,1000000
499642,1000000
499668,1000000
500292,1000000
499134,1000000
500613,1000000
500541,1000000
499730,1000000
500071,1000000
499620,1000000
499888,1000000
500478,1000000
500136,1000000
498926,1000000
499604,1000000
499381,1000000
500040,1000000
499296,1000000
499966,1000000
500163,1000000
500158,1000000
499896,1000000
499589,1000000
500031,1000000
500687,1000000
500595,1000000
499945,1000000
499919,1000000
500711,1000000
499603,1000000
500304,1000000
500068,1000000
499966,1000000
499629,1000000
499192,1000000
501274,1000000
498994,1000000
499866,1000000
500572,1000000
501011,1000000
500703,1000000
500045,1000000
500169,1000000
499424,1000000
499459,1000000
500486,1000000
500341,1000000
499624,1000000
499450,1000000
500704,1000000
500465,1000000
499555,1000000
501024,1000000
500347,1000000
500228,1000000
500110,1000000
500044,1000000
499643,1000000
500515,1000000
500544,1000000
499751,1000000
500263,1000000
500119,1000000
500198,1000000
501177,1000000
500088,1000000
500256,1000000
499392,1000000
499477,1000000
499408,1000000
499379,1000000
500320,1000000
499234,1000000
500614,1000000
499744,1000000
499293,1000000
499832,1000000
499777,1000000
499480,1000000
500166,1000000
500341,1000000
500972,1000000
500433,1000000
500451,1000000
499926,1000000
499225,1000000
500245,1000000
500031,1000000
499408,1000000
500060,1000000
500591,1000000
500856,1000000
500048,1000000
499568,1000000
499777,1000000
499795,1000000
500093,1000000
499851,1000000
499672,1000000
500106,1000000
500250,1000000
499264,1000000
500453,1000000
500274,1000000
500740,1000000
500660,1000000
498975,1000000
499585,1000000
500310,1000000
499738,1000000
499837,1000000
499176,1000000
499714,1000000
500552,1000000
500135,1000000
500443,1000000
499671,1000000
500278,1000000
499264,1000000
499811,1000000
499610,1000000
500498,1000000
500575,1000000
500069,1000000
499611,1000000
501296,1000000
500303,1000000
499318,1000000
499537,1000000
500026,1000000
500495,1000000
499631,1000000
499326,1000000
499527,1000000
500147,1000000
500131,1000000
499650,1000000
500120,1000000
499881,1000000
500139,1000000
500305,1000000
500006,1000000
500389,1000000
499541,1000000
500431,1000000
501163,1000000
500403,1000000
500312,1000000
500008,1000000
499704,1000000
499636,1000000
500087,1000000
500109,1000000
500016,1000000
500648,1000000
499638,1000000
498714,1000000
499209,1000000
499627,1000000
500155,1000000
499904,1000000
500184,1000000
499870,1000000
499289,1000000
499772,1000000
500612,1000000
499558,1000000
499997,1000000
500514,1000000
499616,1000000
500500,1000000
500374,1000000
500008,1000000
498805,1000000
500340,1000000
500341,1000000
499314,1000000
500416,1000000
500232,1000000
499810,1000000
500074,1000000
499328,1000000
499817,1000000
499804,1000000
499525,1000000
498478,1000000
499957,1000000
500239,1000000
500729,1000000
498930,1000000
501235,1000000
499976,1000000
499732,1000000
499665,1000000
499283,1000000
499403,1000000
499797,1000000
499553,1000000
499855,1000000
499728,1000000
500352,1000000
499602,1000000
500433,1000000
499690,1000000
500157,1000000
500342,1000000
499932,1000000
499729,1000000
500511,1000000
500389,1000000
500436,1000000
499383,1000000
500052,1000000
499548,1000000
500296,1000000
499975,1000000
499397,1000000
499416,1000000
499899,1000000
499842,1000000
499990,1000000
499333,1000000
499754,1000000
499948,1000000
498986,1000000
499942,1000000
499565,1000000
500240,1000000
500004,1000000
500025,1000000
500305,1000000
499647,1000000
499856,1000000
500617,1000000
499763,1000000
500226,1000000
499836,1000000
499579,1000000
500286,1000000
499754,1000000
499968,1000000
499744,1000000
500274,1000000
500553,1000000
500103,1000000
499538,1000000
499860,1000000
499388,1000000
499646,1000000
498652,1000000
500011,1000000
499749,1000000
499003,1000000
500584,1000000
500151,1000000
500521,1000000
499750,1000000
500007,1000000
500072,1000000
500444,1000000
499788,1000000
500777,1000000
499630,1000000
500121,1000000
500114,1000000
499833,1000000
499786,1000000
500274,1000000
499378,1000000
500648,1000000
500449,1000000
499308,1000000
499898,1000000
500166,1000000
500262,1000000
500482,1000000
500105,1000000
500397,1000000
500594,1000000
500030,1000000
500165,1000000
500687,1000000
500072,1000000
499715,1000000
499087,1000000
499697,1000000
500452,1000000
500355,1000000
500214,1000000
500211,1000000
500503,1000000
500166,1000000
499728,1000000
500087,1000000
499381,1000000
500099,1000000
500056,1000000
500850,1000000
499607,1000000
498942,1000000
500136,1000000
500025,1000000
499970,1000000
500820,1000000
499351,1000000
500279,1000000
500107,1000000
499997,1000000
500928,1000000
500785,1000000
499966,1000000
499949,1000000
499685,1000000
499691,1000000
499986,1000000
500272,1000000
500182,1000000
500530,1000000
500045,1000000
499866,1000000
499781,1000000
500208,1000000
499341,1000000
499972,1000000
500057,1000000
501082,1000000
499904,1000000
499841,1000000
499476,1000000
499846,1000000
499776,1000000
500397,1000000
500625,1000000
499564,1000000
498963,1000000
499824,1000000
500138,1000000
499414,1000000
499477,1000000
500291,1000000
499681,1000000
499649,1000000
499894,1000000
499792,1000000
499748,1000000
499969,1000000
499490,1000000
500410,1000000
499335,1000000
499841,1000000
500243,1000000
499433,1000000
499839,1000000
500259,1000000
500084,1000000
499435,1000000
499487,1000000
499728,1000000
500104,1000000
499308,1000000
499889,1000000
499171,1000000
500642,1000000
499911,1000000
500231,1000000
499711,1000000
499965,1000000
499791,1000000
499593,1000000
500225,1000000
500326,1000000
501035,1000000
499009,1000000
500479,1000000
499676,1000000
500474,1000000
499414,1000000
500186,1000000
499739,1000000
499811,1000000
500416,1000000
500015,1000000
500139,1000000
500669,1000000
500642,1000000
500389,1000000
499804,1000000
501190,1000000
499362,1000000
499835,1000000
500047,1000000
500262,1000000
500416,1000000
498989,1000000
499537,1000000
500258,1000000
499532,1000000
499922,1000000
499241,1000000
500018,1000000
500250,1000000
500149,1000000
501079,1000000
499718,1000000
499265,1000000
499771,1000000
499673,1000000
500107,1000000
500520,1000000
500489,1000000
500350,1000000
500615,1000000
499617,1000000
499571,1000000
499815,1000000
499396,1000000
500151,1000000
500083,1000000
500270,1000000
500509,1000000
499645,1000000
499536,1000000
499874,1000000
499876,1000000
500108,1000000
500068,1000000
499936,1000000
499751,1000000
500563,1000000
499386,1000000
499710,1000000
500147,1000000
499984,1000000
499509,1000000
500121,1000000
500131,1000000
500381,1000000
499818,1000000
499421,1000000
500268,1000000
499487,1000000
500591,1000000
499981,1000000
499601,1000000
499468,1000000
500360,1000000
500010,1000000
499711,1000000
498788,1000000
500135,1000000
499416,1000000
500403,1000000
500344,1000000
499933,1000000
500320,1000000
500646,1000000
500845,1000000
499853,1000000
500574,1000000
500053,1000000
499923,1000000
500122,1000000
500129,1000000
501394,1000000
500880,1000000
500591,1000000
499823,1000000
500125,1000000
500117,1000000
499377,1000000
500063,1000000
500387,1000000
499977,1000000
499641,1000000
500219,1000000
499490,1000000
500182,1000000
499896,1000000
500161,1000000
500151,1000000
499147,1000000
499760,1000000
500365,1000000
499534,1000000
500525,1000000
499315,1000000
500415,1000000
500297,1000000
500578,1000000
500604,1000000
499559,1000000
499552,1000000
499309,1000000
500293,1000000
499940,1000000
499539,1000000
499389,1000000
500429,1000000
499773,1000000
499850,1000000
499134,1000000
499025,1000000
499590,1000000
499638,1000000
500324,1000000
499944,1000000
500269,1000000
499663,1000000
499813,1000000
501049,1000000
500471,1000000
500454,1000000
499366,1000000
499784,1000000
500097,1000000
500713,1000000
499822,1000000
500055,1000000
500304,1000000
500100,1000000
498971,1000000
500199,1000000
500848,1000000
500412,1000000
500603,1000000
500061,1000000
499440,1000000
499283,1000000
499855,1000000
500051,1000000
500331,1000000
500805,1000000
500630,1000000
500667,1000000
499838,1000000
499825,1000000
501033,1000000
500292,1000000
499108,1000000
500196,1000000
499793,1000000
500554,1000000
500298,1000000
499757,1000000
499932,1000000
501052,1000000
500973,1000000
500695,1000000
499241,1000000
499623,1000000
499556,1000000
500139,1000000
499912,1000000
500419,1000000
499617,1000000
500425,1000000
498994,1000000
500360,1000000
500088,1000000
500030,1000000
500961,1000000
500127,1000000
500161,1000000
500488,1000000
500113,1000000
499146,1000000
499292,1000000
500318,1000000
500905,1000000
500002,1000000
499977,1000000
499958,1000000
498864,1000000
499385,1000000
500516,1000000
499966,1000000
499877,1000000
499692,1000000
499941,1000000
499601,1000000
499486,1000000
499629,1000000
499021,1000000
500208,1000000
499415,1000000
499845,1000000
500584,1000000
500080,1000000
500171,1000000
500021,1000000
499819,1000000
499574,1000000
499451,1000000
501035,1000000
500187,1000000
499608,1000000
499416,1000000
500599,1000000
499648,1000000
499524,1000000
500776,1000000
499460,1000000
500634,1000000
499010,1000000
499874,1000000
500411,1000000
500707,1000000
499576,1000000
499213,1000000
500229,1000000
499229,1000000
500604,1000000
499734,1000000
500202,1000000
500267,1000000
499855,1000000
499433,1000000
499475,1000000
499988,1000000
499447,1000000
500026,1000000
500151,1000000
499010,1000000
499569,1000000
499580,1000000
499998,1000000
500127,1000000
499588,1000000
500519,1000000
500925,1000000
499602,1000000
499995,1000000
500393,1000000
499511,1000000
500626,1000000
499148,1000000
499235,1000000
500227,1000000
500006,1000000
499651,1000000
498920,1000000
499825,1000000
501179,1000000
499956,1000000
500659,1000000
500388,1000000
499679,1000000
499132,1000000
500647,1000000
500130,1000000
499787,1000000
499835,1000000
501205,1000000
500414,1000000
499808,1000000
499924,1000000
499446,1000000
498812,1000000
499704,1000000
500032,1000000
499809,1000000
500471,1000000
499974,1000000
499857,1000000
501056,1000000
500282,1000000
499793,1000000
499766,1000000
500624,1000000
500811,1000000
500035,1000000
500719,1000000
501104,1000000
499656,1000000
499519,1000000
500751,1000000
499298,1000000
500804,1000000
500205,1000000
498668,1000000
499304,1000000
499782,1000000
501182,1000000
500015,1000000
499423,1000000
501223,1000000
500659,1000000
500604,1000000
499867,1000000
500128,1000000
499733,1000000
499877,1000000
500117,1000000
500928,1000000
499544,1000000
499899,1000000
499937,1000000
500526,1000000
500032,1000000
499927,1000000
500428,1000000
499821,1000000
500012,1000000
500340,1000000
500012,1000000
499751,1000000
499747,1000000
500045,1000000
499592,1000000
500101,1000000
500995,1000000
500020,1000000
500279,1000000
499712,1000000
500936,1000000
499795,1000000
499813,1000000
499254,1000000
500173,1000000
500425,1000000
499318,1000000
500537,1000000
500978,1000000
499894,1000000
499699,1000000
500691,1000000
499539,1000000
499880,1000000
500119,1000000
499714,1000000
501267,1000000
500367,1000000
499927,1000000
500978,1000000
500295,1000000
500591,1000000
500154,1000000
500795,1000000
499977,1000000
499191,1000000
501526,1000000
499375,1000000
499973,1000000
500419,1000000
500615,1000000
498951,1000000
500299,1000000
499821,1000000
500232,1000000
500484,1000000
499719,1000000
500734,1000000
499793,1000000
500053,1000000
500130,1000000
500105,1000000
499981,1000000
499928,1000000
499937,1000000
500673,1000000
499044,1000000
499764,1000000
499560,1000000
501102,1000000
499225,1000000
499209,1000000
500159,1000000
500911,1000000
500407,1000000
499583,1000000
500548,1000000
500473,1000000
499583,1000000
500574,1000000
499985,1000000
499517,1000000
499221,1000000
499945,1000000
499030,1000000
500227,1000000
500349,1000000
499171,1000000
499978,1000000
500077,1000000
499143,1000000
499826,1000000
499569,1000000
499634,1000000
499678,1000000
499776,1000000
500083,1000000
499746,1000000
499783,1000000
500262,1000000
499493,1000000
500104,1000000
500110,1000000
499866,1000000
499575,1000000
500357,1000000
500312,1000000
499844,1000000
500087,1000000
499822,1000000
500330,1000000
500892,1000000
500234,1000000
499168,1000000
500563,1000000
500166,1000000
499951,1000000
499842,1000000
499426,1000000
499779,1000000
500059,1000000
500456,1000000
499688,1000000
500099,1000000
500188,1000000
499783,1000000
499191,1000000
500069,1000000
499774,1000000
499753,1000000
500913,1000000
499775,1000000
499585,1000000
499854,1000000
499582,1000000
500259,1000000
500097,1000000
498908,1000000
499784,1000000
500201,1000000
500472,1000000
500564,1000000
500163,1000000
499737,1000000
500919,1000000
499795,1000000
499712,1000000
499661,1000000
499232,1000000
500549,1000000
500431,1000000
499645,1000000
499874,1000000
500798,1000000
499985,1000000
499556,1000000
500264,1000000
499621,1000000
499301,1000000
500628,1000000
499644,1000000
499965,1000000
499490,1000000
500368,1000000
500316,1000000
499802,1000000
500011,1000000
500534,1000000
500493,1000000
499708,1000000
499511,1000000
500038,1000000
500270,1000000
499195,1000000
499753,1000000
500210,1000000
499712,1000000
500374,1000000
500103,1000000
499312,1000000
499326,1000000
499829,1000000
500111,1000000
500238,1000000
499832,1000000
500048,1000000
500028,1000000
500116,1000000
500006,1000000
500175,1000000
500342,1000000
499777,1000000
499956,1000000
499548,1000000
500251,1000000
500562,1000000
499340,1000000
499696,1000000
500313,1000000
500237,1000000
500564,1000000
500787,1000000
500297,1000000
499780,1000000
499647,1000000
499504,1000000
500059,1000000
500314,1000000
500221,1000000
499495,1000000
499895,1000000
499823,1000000
500104,1000000
500899,1000000
500542,1000000
501126,1000000
499775,1000000
499731,1000000
499703,1000000
499880,1000000
500424,1000000
499757,1000000
499732,1000000
499913,1000000
500070,1000000
499906,1000000
499139,1000000
499442,1000000
499588,1000000
499273,1000000
499860,1000000
500301,1000000
500224,1000000
499497,1000000
499445,1000000
500252,1000000
500685,1000000
499830,1000000
500629,1000000
500698,1000000
499868,1000000
499872,1000000
499938,1000000
500172,1000000
499178,1000000
500851,1000000
500238,1000000
499500,1000000
499892,1000000
498535,1000000
499575,1000000
499648,1000000
500435,1000000
499380,1000000
500227,1000000
500404,1000000
500475,1000000
499944,1000000
499781,1000000
499021,1000000
500204,1000000
499536,1000000
499535,1000000
499658,1000000
499440,1000000
499576,1000000
499784,1000000
499533,1000000
499738,1000000
500143,1000000
500201,1000000
500093,1000000
499387,1000000
499272,1000000
499984,1000000
499814,1000000
499467,1000000
499946,1000000
500125,1000000
500080,1000000
498954,1000000
499249,1000000
500111,1000000
500533,1000000
500232,1000000
499739,1000000
499437,1000000
499679,1000000
499910,1000000
499866,1000000
499360,1000000
499484,1000000
499617,1000000
500142,1000000
499290,1000000
499114,1000000
499781,1000000
499874,1000000
499624,1000000
499247,1000000
500404,1000000
500112,1000000
499578,1000000
500128,1000000
499990,1000000
500006,1000000
500405,1000000
499947,1000000
499916,1000000
499767,1000000
499916,1000000
499866,1000000
499930,1000000
500408,1000000
499751,1000000
500047,1000000
499339,1000000
499785,1000000
500330,1000000
499126,1000000
500833,1000000
500034,1000000
500195,1000000
499633,1000000
500091,1000000
500216,1000000
500275,1000000
500384,1000000
499235,1000000
500705,1000000
500106,1000000
499455,1000000
500059,1000000
499957,1000000
499293,1000000
500085,1000000
499990,1000000
500339,1000000
499839,1000000
500589,1000000
500295,1000000
500087,1000000
500854,1000000
500159,1000000
499086,1000000
499771,1000000
499966,1000000
500513,1000000
500700,1000000
499551,1000000
500629,1000000
499020,1000000
500099,1000000
500377,1000000
499685,1000000
500353,1000000
500351,1000000
499337,1000000
499617,1000000
500098,1000000
500214,1000000
500469,1000000
500092,1000000
500297,1000000
499747,1000000
499863,1000000
500567,1000000
500288,1000000
500114,1000000
500563,1000000
500539,1000000
499770,1000000
499625,1000000
501388,1000000
499938,1000000
499585,1000000
500802,1000000
500398,1000000
500048,1000000
500359,1000000
499732,1000000
499754,1000000
500153,1000000
499707,1000000
499977,1000000
500871,1000000
499779,1000000
499416,1000000
499515,1000000
500126,1000000
500075,1000000
499372,1000000
500902,1000000
499600,1000000
499541,1000000
499648,1000000
501229,1000000
499444,1000000
499910,1000000
499809,1000000
500058,1000000
499866,1000000
499823,1000000
500104,1000000
499470,1000000
499826,1000000
499939,1000000
499658,1000000
500378,1000000
500249,1000000
499618,1000000
501124,1000000
499829,1000000
499379,1000000
500307,1000000
499220,1000000
500049,1000000
499428,1000000
499983,1000000
501019,1000000
499701,1000000
499889,1000000
500782,1000000
499962,1000000
499318,1000000
499810,1000000
500002,1000000
499826,1000000
500555,1000000
500064,1000000
499706,1000000
499104,1000000
500138,1000000
500363,1000000
499777,1000000
500092,1000000
499830,1000000
499968,1000000
500021,1000000
499727,1000000
500105,1000000
500089,1000000
500706,1000000
499975,1000000
499720,1000000
500406,1000000
500017,1000000
499765,1000000
499997,1000000
500824,1000000
499487,1000000
500338,1000000
499590,1000000
499622,1000000
500878,1000000
500569,1000000
