# zeros,totals
100433,99800,100273,99562,99732,100097,99971,100018,100164,100060,100419,99846,99981,99921,99315,100513,99678,99795,99550,100153,99905,99887,100056,99742,100211,99797,100000,99862,100058,99777,99781,99761,100074,99678,99862,100053,100075,100375,99875,100070,100111,100072,99969,100646,99911,100234,100364,99609,100162,100352,99853,99892,100130,99819,100041,100288,99771,100125,100199,99972,100074,100222,100042,100032,100195,100149,100039,100129,100185,100329,100053,99828,99732,99991,99589,99882,99988,100325,99610,100062,99919,100212,100061,99738,100134,100040,100178,99830,99799,100124,99972,99876,100006,100240,99767,100113,100100,100223,99896,100128,100095,100012,99955,99590,100016,100245,99623,99744,99370,100151,99511,99800,100094,100110,100115,100026,99980,99688,99848,100150,100180,99814,100236,100391,99634,100038,99604,99961,99708,100040,99983,99947,100310,99952,100205,99983,100128,99791,100009,100136,99749,100160,100095,99934,100009,100032,100222,100219,100362,100127,100212,99893,100256,100125,100221,100036,99870,100115,99904,100094,99877,99757,100215,100017,100297,100355,99852,99840,100171,100126,99691,100194,100142,99656,100212,100474,100204,100365,99789,99951,99990,100055,99714,99969,100091,99994,100056,99598,99717,99951,99747,100076,100222,100034,100000,100025,99729,99977,100076,99463,99898,100306,99478,99936,99685,99829,100293,100362,99820,100119,100148,99695,99782,100158,100313,100409,99886,99588,100024,100360,100240,99941,99985,100465,100098,100143,100072,100183,100330,100118,99939,99867,100339,100352,100128,99973,99869,100089,100197,100451,100125,100173,100278,99615,100395,100047,99951,100234,99872,100274,99940,99982,99872,100109,100022,99666
200000,200000,200000,200000,200000,200000,200000,200000,200000,200000,200000,200000,200000,200000,200000,200000,200000,200000,200000,200000,200000,200000,200000,200000,200000,200000,200000,200000,200000,200000,200000,200000,200000,200000,200000,200000,200000,200000,200000,200000,200000,200000,200000,200000,200000,200000,200000,200000,200000,200000,200000,200000,200000,200000,200000,200000,200000,200000,200000,200000,200000,200000,200000,200000,200000,200000,200000,200000,200000,200000,200000,200000,200000,200000,200000,200000,200000,200000,200000,200000,200000,200000,200000,200000,200000,200000,200000,200000,200000,200000,200000,200000,200000,200000,200000,200000,200000,200000,200000,200000,200000,200000,200000,200000,200000,200000,200000,200000,200000,200000,200000,200000,200000,200000,200000,200000,200000,200000,200000,200000,200000,200000,200000,200000,200000,200000,200000,200000,200000,200000,200000,200000,200000,200000,200000,200000,200000,200000,200000,200000,200000,200000,200000,200000,200000,200000,200000,200000,200000,200000,200000,200000,200000,200000,200000,200000,200000,200000,200000,200000,200000,200000,200000,200000,200000,200000,200000,200000,200000,200000,200000,200000,200000,200000,200000,200000,200000,200000,200000,200000,200000,200000,200000,200000,200000,200000,200000,200000,200000,200000,200000,200000,200000,200000,200000,200000,200000,200000,200000,200000,200000,200000,200000,200000,200000,200000,200000,200000,200000,200000,200000,200000,200000,200000,200000,200000,200000,200000,200000,200000,200000,200000,200000,200000,200000,200000,200000,200000,200000,200000,200000,200000,200000,200000,200000,200000,200000,200000,200000,200000,200000,200000,200000,200000,200000,200000,200000,200000,200000,200000,200000,200000,200000,200000,200000,200000
