Percetatge de que sigui un 0 a cada bit amb una clau d'en Bob i una de l'Alice
[49.9968 49.9561 49.9497 50.0052 49.9238 49.9453 49.9785 50.0337 50.0532
 49.9346 49.9576 49.9865 49.9988 49.941  50.0355 50.0156 49.9976 49.9866
 49.9714 50.0362 49.9472 49.9849 50.0725 49.9251 49.9706 50.045  50.0111
 50.0343 49.9335 49.9911 50.0645 49.9834 50.0101 49.9708 50.0044 49.9823
 49.9185 49.9847 49.9101 49.9768 50.0327 49.8827 49.9877 50.0027 50.0275
 49.9512 49.9896 49.9875 49.9634 49.9948 49.9894 50.0076 49.9772 50.0428
 50.0036 49.9962 49.9684 50.0514 49.8904 50.0176 50.0375 50.098  49.9759
 49.8836 49.999  49.9284 50.0162 49.9599 50.012  50.0414 50.0202 50.0464
 49.9455 50.0502 49.9639 50.0243 50.0483 49.9998 49.9497 50.0092 50.0492
 50.1033 49.9924 50.0119 50.0333 50.0265 50.0022 50.0406 50.0849 49.9872
 49.9357 49.9486 50.0761 49.9816 49.9857 49.9813 50.1027 49.9514 50.0152
 50.0121 49.9551 49.9947 49.9652 49.922  50.051  49.9738 50.0191 50.0281
 49.9586 49.9231 50.0489 49.9944 49.9892 49.9779 50.0811 49.9409 50.0584
 49.9703 49.9902 49.936  49.9251 50.0257 50.0243 50.0211 49.9778 50.0395
 50.0052 49.9074 49.9798 50.039  49.9252 50.0079 50.0524 50.0541 49.9901
 49.9368 50.0071 49.8657 49.9859 50.0611 50.0352 49.8899 50.1314 50.048
 50.0249 49.9969 50.0349 49.9313 50.082  49.9866 49.9334 49.9769 50.0513
 49.9598 49.9548 50.0168 49.9836 49.9977 49.9845 50.0529 49.959  50.0367
 49.9929 50.0052 50.0244 50.0362 50.0289 50.0099 49.9923 49.9071 50.0079
 49.9553 50.0335 50.0747 50.0758 50.0309 49.9957 50.0591 49.9792 50.0032
 50.0141 49.9114 49.9573 49.9957 49.9631 49.9482 50.0038 49.9587 50.006
 49.9838 50.0671 49.9666 50.0039 49.9521 50.0542 49.9747 50.0299 49.995
 50.0368 49.8963 49.9963 49.9487 49.9957 49.9208 49.9803 50.0338 50.0692
 49.9578 50.0369 49.9911 49.9586 49.8939 50.0569 49.9856 50.0666 49.9636
 50.0703 49.9734 49.995  50.0155 50.0121 50.0411 50.0384 49.9344 50.0211
 50.0226 49.9535 50.0519 49.9212 49.9453 49.9133 50.0445 49.9935 50.0028
 50.007  50.0548 50.0261 50.033  49.9676 50.017  50.0038 50.0601 49.9987
 49.9994 50.0363 49.959  49.9523 49.9915 50.0204 49.9093 49.9284 50.0331
 50.0247 49.8894 50.0047 49.9947]
Nombre de zeros
[499968, 499561, 499497, 500052, 499238, 499453, 499785, 500337, 500532, 499346, 499576, 499865, 499988, 499410, 500355, 500156, 499976, 499866, 499714, 500362, 499472, 499849, 500725, 499251, 499706, 500450, 500111, 500343, 499335, 499911, 500645, 499834, 500101, 499708, 500044, 499823, 499185, 499847, 499101, 499768, 500327, 498827, 499877, 500027, 500275, 499512, 499896, 499875, 499634, 499948, 499894, 500076, 499772, 500428, 500036, 499962, 499684, 500514, 498904, 500176, 500375, 500980, 499759, 498836, 499990, 499284, 500162, 499599, 500120, 500414, 500202, 500464, 499455, 500502, 499639, 500243, 500483, 499998, 499497, 500092, 500492, 501033, 499924, 500119, 500333, 500265, 500022, 500406, 500849, 499872, 499357, 499486, 500761, 499816, 499857, 499813, 501027, 499514, 500152, 500121, 499551, 499947, 499652, 499220, 500510, 499738, 500191, 500281, 499586, 499231, 500489, 499944, 499892, 499779, 500811, 499409, 500584, 499703, 499902, 499360, 499251, 500257, 500243, 500211, 499778, 500395, 500052, 499074, 499798, 500390, 499252, 500079, 500524, 500541, 499901, 499368, 500071, 498657, 499859, 500611, 500352, 498899, 501314, 500480, 500249, 499969, 500349, 499313, 500820, 499866, 499334, 499769, 500513, 499598, 499548, 500168, 499836, 499977, 499845, 500529, 499590, 500367, 499929, 500052, 500244, 500362, 500289, 500099, 499923, 499071, 500079, 499553, 500335, 500747, 500758, 500309, 499957, 500591, 499792, 500032, 500141, 499114, 499573, 499957, 499631, 499482, 500038, 499587, 500060, 499838, 500671, 499666, 500039, 499521, 500542, 499747, 500299, 499950, 500368, 498963, 499963, 499487, 499957, 499208, 499803, 500338, 500692, 499578, 500369, 499911, 499586, 498939, 500569, 499856, 500666, 499636, 500703, 499734, 499950, 500155, 500121, 500411, 500384, 499344, 500211, 500226, 499535, 500519, 499212, 499453, 499133, 500445, 499935, 500028, 500070, 500548, 500261, 500330, 499676, 500170, 500038, 500601, 499987, 499994, 500363, 499590, 499523, 499915, 500204, 499093, 499284, 500331, 500247, 498894, 500047, 499947]
Percetatge2 de que sigui un 0 a cada bit amb una clau d'en Bob i una de l'Alice
[100.      62.4352   0.      37.5648  87.4013  56.3191  56.267   50.055
 100.      62.5271   0.      37.4729  87.5165  56.176   56.245   50.0884
 100.      62.4527   0.      37.5473  87.5266  56.2488  56.1876  50.0511
 100.      62.5482   0.      37.4518  87.4821  56.3147  56.1967  50.0422
 100.      62.4405   0.      37.5595  87.5308  56.1639  56.1796  50.0236
 100.      62.5069   0.      37.4931  87.4933  56.3783  56.1746  49.9734
 100.      62.5314   0.      37.4686  87.4974  56.2835  56.2667  49.9913
 100.      62.4962   0.      37.5038  87.5143  56.2489  56.2796  50.074
 100.      62.4793   0.      37.5207  87.5211  56.2926  56.2281  50.0573
 100.      62.5486   0.      37.4514  87.4679  56.2235  56.2751  49.982
 100.      62.4946   0.      37.5054  87.4694  56.26    56.2147  49.9884
 100.      62.5234   0.      37.4766  87.4801  56.2602  56.4204  49.9182
 100.      62.565    0.      37.435   87.493   56.2097  56.1875  50.0721
 100.      62.4793   0.      37.5207  87.4545  56.2631  56.2246  50.0158
 100.      62.4256   0.      37.5744  87.4634  56.2235  56.3558  49.9944
 100.      62.5017   0.      37.4983  87.4709  56.2798  56.2425  49.9699
 100.      62.4215   0.      37.5785  87.4985  56.1875  56.2894  49.9438
 100.      62.4478   0.      37.5522  87.5249  56.2347  56.263   50.0126
 100.      62.4838   0.      37.5162  87.4766  56.3331  56.1799  49.9546
 100.      62.535    0.      37.465   87.464   56.315   56.3473  49.9418
 100.      62.4667   0.      37.5333  87.5022  56.2576  56.2032  50.035
 100.      62.4875   0.      37.5125  87.5586  56.288   56.2638  49.9385
 100.      62.5416   0.      37.4584  87.5073  56.2168  56.3526  50.1235
 100.      62.4931   0.      37.5069  87.5167  56.2509  56.216   50.0006
 100.      62.5333   0.      37.4667  87.4709  56.2886  56.2681  50.0031
 100.      62.5816   0.      37.4184  87.5231  56.2711  56.2198  49.9365
 100.      62.4664   0.      37.5336  87.5652  56.2525  56.1828  50.019
 100.      62.4896   0.      37.5104  87.5167  56.2415  56.2069  50.001
 100.      62.4946   0.      37.5054  87.4837  56.2537  56.2509  50.0312
 100.      62.5173   0.      37.4827  87.4786  56.2788  56.2704  50.0096
 100.      62.4896   0.      37.5104  87.5572  56.289   56.2685  49.9406
 100.      62.5285   0.      37.4715  87.5053  56.2019  56.2349  50.0638]
Nombre de zeros2
[1000000, 624352, 0, 375648, 874013, 563191, 562670, 500550, 1000000, 625271, 0, 374729, 875165, 561760, 562450, 500884, 1000000, 624527, 0, 375473, 875266, 562488, 561876, 500511, 1000000, 625482, 0, 374518, 874821, 563147, 561967, 500422, 1000000, 624405, 0, 375595, 875308, 561639, 561796, 500236, 1000000, 625069, 0, 374931, 874933, 563783, 561746, 499734, 1000000, 625314, 0, 374686, 874974, 562835, 562667, 499913, 1000000, 624962, 0, 375038, 875143, 562489, 562796, 500740, 1000000, 624793, 0, 375207, 875211, 562926, 562281, 500573, 1000000, 625486, 0, 374514, 874679, 562235, 562751, 499820, 1000000, 624946, 0, 375054, 874694, 562600, 562147, 499884, 1000000, 625234, 0, 374766, 874801, 562602, 564204, 499182, 1000000, 625650, 0, 374350, 874930, 562097, 561875, 500721, 1000000, 624793, 0, 375207, 874545, 562631, 562246, 500158, 1000000, 624256, 0, 375744, 874634, 562235, 563558, 499944, 1000000, 625017, 0, 374983, 874709, 562798, 562425, 499699, 1000000, 624215, 0, 375785, 874985, 561875, 562894, 499438, 1000000, 624478, 0, 375522, 875249, 562347, 562630, 500126, 1000000, 624838, 0, 375162, 874766, 563331, 561799, 499546, 1000000, 625350, 0, 374650, 874640, 563150, 563473, 499418, 1000000, 624667, 0, 375333, 875022, 562576, 562032, 500350, 1000000, 624875, 0, 375125, 875586, 562880, 562638, 499385, 1000000, 625416, 0, 374584, 875073, 562168, 563526, 501235, 1000000, 624931, 0, 375069, 875167, 562509, 562160, 500006, 1000000, 625333, 0, 374667, 874709, 562886, 562681, 500031, 1000000, 625816, 0, 374184, 875231, 562711, 562198, 499365, 1000000, 624664, 0, 375336, 875652, 562525, 561828, 500190, 1000000, 624896, 0, 375104, 875167, 562415, 562069, 500010, 1000000, 624946, 0, 375054, 874837, 562537, 562509, 500312, 1000000, 625173, 0, 374827, 874786, 562788, 562704, 500096, 1000000, 624896, 0, 375104, 875572, 562890, 562685, 499406, 1000000, 625285, 0, 374715, 875053, 562019, 562349, 500638]
Percetatge3 de que sigui un 0 a cada bit amb una clau d'en Bob i una de l'Alice
[100.      62.5809   0.      37.4191  87.5242  56.2201  56.1539  50.0294
 100.      62.503    0.      37.497   87.4936  56.28    56.261   49.9359
 100.      62.5049   0.      37.4951  87.4819  56.23    56.236   50.0595
 100.      62.5429   0.      37.4571  87.5082  56.2985  56.2916  50.0115
 100.      62.5323   0.      37.4677  87.5395  56.186   56.3133  50.0001
 100.      62.4492   0.      37.5508  87.5111  56.2246  56.2095  50.0009
 100.      62.4537   0.      37.5463  87.5272  56.1921  56.2432  50.0107
 100.      62.4618   0.      37.5382  87.4862  56.2279  56.1851  49.986
 100.      62.4852   0.      37.5148  87.5137  56.21    56.2742  50.0684
 100.      62.5588   0.      37.4412  87.472   56.2674  56.3134  50.0368
 100.      62.4843   0.      37.5157  87.4768  56.288   56.1499  50.0964
 100.      62.5189   0.      37.4811  87.5013  56.2488  56.2448  49.9558
 100.      62.5156   0.      37.4844  87.4987  56.2899  56.1918  50.0152
 100.      62.5548   0.      37.4452  87.4698  56.266   56.3066  49.9781
 100.      62.5112   0.      37.4888  87.4903  56.1982  56.3531  49.9821
 100.      62.3859   0.      37.6141  87.5767  56.2261  56.22    49.968
 100.      62.4746   0.      37.5254  87.5109  56.2062  56.2669  49.9386
 100.      62.4649   0.      37.5351  87.5195  56.2859  56.2696  50.0797
 100.      62.4504   0.      37.5496  87.5177  56.1247  56.3041  50.0548
 100.      62.4414   0.      37.5586  87.4876  56.3252  56.1277  50.0043
 100.      62.4725   0.      37.5275  87.4604  56.3216  56.2807  49.9006
 100.      62.5377   0.      37.4623  87.4761  56.3245  56.2037  50.062
 100.      62.5498   0.      37.4502  87.5823  56.1968  56.2356  49.931
 100.      62.5111   0.      37.4889  87.5374  56.2181  56.2113  50.0474
 100.      62.502    0.      37.498   87.5308  56.2393  56.2224  50.0644
 100.      62.4984   0.      37.5016  87.5304  56.2209  56.2378  49.9798
 100.      62.4622   0.      37.5378  87.5265  56.2298  56.2414  50.0014
 100.      62.5192   0.      37.4808  87.4787  56.1543  56.2559  50.0459
 100.      62.569    0.      37.431   87.4578  56.3081  56.2638  49.9887
 100.      62.5518   0.      37.4482  87.476   56.2103  56.2935  50.0012
 100.      62.4467   0.      37.5533  87.5046  56.2544  56.2813  49.9803
 100.      62.5466   0.      37.4534  87.4656  56.2709  56.2701  49.9714]
Nombre de zeros3
[1000000, 625809, 0, 374191, 875242, 562201, 561539, 500294, 1000000, 625030, 0, 374970, 874936, 562800, 562610, 499359, 1000000, 625049, 0, 374951, 874819, 562300, 562360, 500595, 1000000, 625429, 0, 374571, 875082, 562985, 562916, 500115, 1000000, 625323, 0, 374677, 875395, 561860, 563133, 500001, 1000000, 624492, 0, 375508, 875111, 562246, 562095, 500009, 1000000, 624537, 0, 375463, 875272, 561921, 562432, 500107, 1000000, 624618, 0, 375382, 874862, 562279, 561851, 499860, 1000000, 624852, 0, 375148, 875137, 562100, 562742, 500684, 1000000, 625588, 0, 374412, 874720, 562674, 563134, 500368, 1000000, 624843, 0, 375157, 874768, 562880, 561499, 500964, 1000000, 625189, 0, 374811, 875013, 562488, 562448, 499558, 1000000, 625156, 0, 374844, 874987, 562899, 561918, 500152, 1000000, 625548, 0, 374452, 874698, 562660, 563066, 499781, 1000000, 625112, 0, 374888, 874903, 561982, 563531, 499821, 1000000, 623859, 0, 376141, 875767, 562261, 562200, 499680, 1000000, 624746, 0, 375254, 875109, 562062, 562669, 499386, 1000000, 624649, 0, 375351, 875195, 562859, 562696, 500797, 1000000, 624504, 0, 375496, 875177, 561247, 563041, 500548, 1000000, 624414, 0, 375586, 874876, 563252, 561277, 500043, 1000000, 624725, 0, 375275, 874604, 563216, 562807, 499006, 1000000, 625377, 0, 374623, 874761, 563245, 562037, 500620, 1000000, 625498, 0, 374502, 875823, 561968, 562356, 499310, 1000000, 625111, 0, 374889, 875374, 562181, 562113, 500474, 1000000, 625020, 0, 374980, 875308, 562393, 562224, 500644, 1000000, 624984, 0, 375016, 875304, 562209, 562378, 499798, 1000000, 624622, 0, 375378, 875265, 562298, 562414, 500014, 1000000, 625192, 0, 374808, 874787, 561543, 562559, 500459, 1000000, 625690, 0, 374310, 874578, 563081, 562638, 499887, 1000000, 625518, 0, 374482, 874760, 562103, 562935, 500012, 1000000, 624467, 0, 375533, 875046, 562544, 562813, 499803, 1000000, 625466, 0, 374534, 874656, 562709, 562701, 499714]
Temps d'execució del programa
--- 9328.642049789429 seconds ---
Temps mitja de cada iteració
0.00932864204978943
